# Blender MTL File: 'F-16C.blend'
# Material Count: 3

newmtl canopy
Ns 96.078431
Ka 1.000000 1.000000 1.000000
Kd 0.160232 0.332144 0.640000
Ks 0.500000 0.500000 0.500000
Ke 0.000000 0.000000 0.000000
Ni 1.000000
d 1.000000
illum 2

newmtl fuselage
Ns 96.078431
Ka 1.000000 1.000000 1.000000
Kd 0.640000 0.640000 0.640000
Ks 0.500000 0.500000 0.500000
Ke 0.000000 0.000000 0.000000
Ni 1.000000
d 1.000000
illum 2

newmtl intake
Ns 96.078431
Ka 1.000000 1.000000 1.000000
Kd 0.008017 0.008017 0.008017
Ks 0.500000 0.500000 0.500000
Ke 0.000000 0.000000 0.000000
Ni 1.000000
d 1.000000
illum 2
